{
    "key": "group_5661be1c8e025",
    "title": "Custom Sidebar Widgets",
    "fields": [
        {
            "key": "field_5661be536813b",
            "label": "Widgets",
            "name": "lusa_custom_widgets",
            "type": "repeater",
            "instructions": "If you have content you'd like to appear in the sidebar of this page add a widget here.",
            "required": 0,
            "conditional_logic": 0,
            "wrapper": {
                "width": "",
                "class": "",
                "id": ""
            },
            "min": 0,
            "max": 0,
            "layout": "row",
            "button_label": "Add Widget",
            "sub_fields": [
                {
                    "key": "field_5661be6b6813c",
                    "label": "Title",
                    "name": "lusa_custom_widget_title",
                    "type": "text",
                    "instructions": "",
                    "required": 0,
                    "conditional_logic": 0,
                    "wrapper": {
                        "width": "",
                        "class": "",
                        "id": ""
                    },
                    "default_value": "",
                    "placeholder": "",
                    "prepend": "",
                    "append": "",
                    "maxlength": "",
                    "readonly": 0,
                    "disabled": 0
                },
                {
                    "key": "field_5661be7e6813d",
                    "label": "Content",
                    "name": "lusa_custom_widget_content",
                    "type": "wysiwyg",
                    "instructions": "",
                    "required": 0,
                    "conditional_logic": 0,
                    "wrapper": {
                        "width": "",
                        "class": "",
                        "id": ""
                    },
                    "default_value": "",
                    "tabs": "all",
                    "toolbar": "full",
                    "media_upload": 1,
                    "delay": 0
                }
            ],
            "collapsed": ""
        }
    ],
    "location": [
        [
            {
                "param": "post_type",
                "operator": "==",
                "value": "page"
            },
            {
                "param": "page_template",
                "operator": "!=",
                "value": "homepage.php"
            }
        ]
    ],
    "menu_order": 0,
    "position": "normal",
    "style": "default",
    "label_placement": "top",
    "instruction_placement": "label",
    "hide_on_screen": "",
    "active": 1,
    "description": "",
    "modified": 1534272309
}