{
    "key": "group_5901c565e2a7f",
    "title": "Donate Link",
    "fields": [
        {
            "key": "field_5901c5671447c",
            "label": "Donate Link",
            "name": "donate_link",
            "type": "text",
            "instructions": "Enter the link to the page where you'd like to accept donations.",
            "required": 0,
            "conditional_logic": 0,
            "wrapper": {
                "width": "",
                "class": "",
                "id": ""
            },
            "default_value": "",
            "placeholder": "",
            "prepend": "",
            "append": "",
            "maxlength": ""
        }
    ],
    "location": [
        [
            {
                "param": "options_page",
                "operator": "==",
                "value": "acf-options"
            }
        ]
    ],
    "menu_order": 0,
    "position": "normal",
    "style": "default",
    "label_placement": "top",
    "instruction_placement": "label",
    "hide_on_screen": "",
    "active": 1,
    "description": "",
    "modified": 1534272319
}