{
    "key": "group_561cee12ac99e",
    "title": "Team Member Details",
    "fields": [
        {
            "key": "field_561cee16f51c9",
            "label": "Role",
            "name": "team_role",
            "type": "text",
            "instructions": "",
            "required": 0,
            "conditional_logic": 0,
            "wrapper": {
                "width": "",
                "class": "",
                "id": ""
            },
            "default_value": "",
            "placeholder": "",
            "prepend": "",
            "append": "",
            "maxlength": "",
            "readonly": 0,
            "disabled": 0
        },
        {
            "key": "field_561cf2b01f4cc",
            "label": "Reporter Page",
            "name": "team_reporter_page",
            "type": "page_link",
            "instructions": "If this team member has a reporter page. Select the link here.",
            "required": 0,
            "conditional_logic": 0,
            "wrapper": {
                "width": "",
                "class": "",
                "id": ""
            },
            "post_type": [
                "lusa_reporter"
            ],
            "taxonomy": [],
            "allow_null": 0,
            "multiple": 0,
            "allow_archives": 1
        },
        {
            "key": "field_563dfc2349f0b",
            "label": "Website",
            "name": "team_website",
            "type": "text",
            "instructions": "",
            "required": 0,
            "conditional_logic": 0,
            "wrapper": {
                "width": "",
                "class": "",
                "id": ""
            },
            "default_value": "",
            "placeholder": "",
            "prepend": "",
            "append": "",
            "maxlength": "",
            "readonly": 0,
            "disabled": 0
        },
        {
            "key": "field_561cee1ff51ca",
            "label": "Twitter",
            "name": "team_twitter",
            "type": "text",
            "instructions": "Add the username here without the @ or url.",
            "required": 0,
            "conditional_logic": 0,
            "wrapper": {
                "width": "",
                "class": "",
                "id": ""
            },
            "default_value": "",
            "placeholder": "",
            "prepend": "",
            "append": "",
            "maxlength": "",
            "readonly": 0,
            "disabled": 0
        },
        {
            "key": "field_561ceec4f51ce",
            "label": "Instagram",
            "name": "team_instagram",
            "type": "text",
            "instructions": "Add the username here without the @ or url.",
            "required": 0,
            "conditional_logic": 0,
            "wrapper": {
                "width": "",
                "class": "",
                "id": ""
            },
            "default_value": "",
            "placeholder": "",
            "prepend": "",
            "append": "",
            "maxlength": "",
            "readonly": 0,
            "disabled": 0
        },
        {
            "key": "field_561ceea9f51cc",
            "label": "Facebook",
            "name": "team_facebook",
            "type": "text",
            "instructions": "Add the username here without the @ or url.",
            "required": 0,
            "conditional_logic": 0,
            "wrapper": {
                "width": "",
                "class": "",
                "id": ""
            },
            "default_value": "",
            "placeholder": "",
            "prepend": "",
            "append": "",
            "maxlength": "",
            "readonly": 0,
            "disabled": 0
        },
        {
            "key": "field_561ceeb7f51cd",
            "label": "LinkedIn",
            "name": "team_linkedin",
            "type": "text",
            "instructions": "Add the username here without the @ or url.",
            "required": 0,
            "conditional_logic": 0,
            "wrapper": {
                "width": "",
                "class": "",
                "id": ""
            },
            "default_value": "",
            "placeholder": "",
            "prepend": "",
            "append": "",
            "maxlength": "",
            "readonly": 0,
            "disabled": 0
        }
    ],
    "location": [
        [
            {
                "param": "post_type",
                "operator": "==",
                "value": "lusa_team"
            }
        ]
    ],
    "menu_order": 0,
    "position": "normal",
    "style": "default",
    "label_placement": "top",
    "instruction_placement": "label",
    "hide_on_screen": "",
    "active": 1,
    "description": "",
    "modified": 1534272532
}